module gitlab.com/ankitbhatnagar/otel-gen

go 1.20

require (
	github.com/cenkalti/backoff/v4 v4.2.1 // indirect
	github.com/go-logr/logr v1.2.4 // indirect
	github.com/go-logr/stdr v1.2.2 // indirect
	github.com/golang/protobuf v1.5.3 // indirect
	github.com/grpc-ecosystem/grpc-gateway/v2 v2.16.0 // indirect
	go.opentelemetry.io/collector/semconv v0.86.0 // indirect
	go.opentelemetry.io/otel v1.19.0 // indirect
	go.opentelemetry.io/otel/exporters/otlp/otlpmetric v0.42.0 // indirect
	go.opentelemetry.io/otel/exporters/otlp/otlpmetric/otlpmetrichttp v0.42.0 // indirect
	go.opentelemetry.io/otel/exporters/stdout/stdoutmetric v0.42.0 // indirect
	go.opentelemetry.io/otel/metric v1.19.0 // indirect
	go.opentelemetry.io/otel/sdk v1.19.0 // indirect
	go.opentelemetry.io/otel/sdk/metric v1.19.0 // indirect
	go.opentelemetry.io/otel/trace v1.19.0 // indirect
	go.opentelemetry.io/proto/otlp v1.0.0 // indirect
	golang.org/x/net v0.12.0 // indirect
	golang.org/x/sys v0.12.0 // indirect
	golang.org/x/text v0.11.0 // indirect
	google.golang.org/genproto/googleapis/api v0.0.0-20230711160842-782d3b101e98 // indirect
	google.golang.org/genproto/googleapis/rpc v0.0.0-20230711160842-782d3b101e98 // indirect
	google.golang.org/grpc v1.58.2 // indirect
	google.golang.org/protobuf v1.31.0 // indirect
)
